…
With the data prepped, we can now fit the models. In this case, we’ll fit two models. One will be an ARIMA of incident cases, with parameters automatically optimized. For more details see ?fable::ARIMA. The other model will use the three week lagged incident case counts to predict incident deaths:

fit.icases <- usa %>% model(arima = ARIMA(icases, stepwise=FALSE, approximation=FALSE))
fit.ideaths <- usa %>% model(linear_caselag3 = TSLM(ideaths ~ lag(icases, 3)))

Note that the code above uses the fabletools::model() function directly. The focustools package does include ts_fit(), which is a wrapper for modeling multiple outcomes and/or using a list of model specifications. However, currently ts_fit() is incompatible with the TSLM model used above for the incident deaths. For an example of ts_fit() in action see the “Evaluating model accuracy” section below.

With the model fit objects created, we can generate forecasts (including point and quantile estimates) for the outcomes of interest at an arbitrary horizon. Note that given the model we have chosen for the incident deaths outcome, we do need to make sure to generate the incident case forecast first so that we can retrieve point estimates for future cases, which will be passed into the incident deaths forecast:

## generate incident case forecast
icases_forecast <- ts_forecast(fit.icases, outcome = "icases", horizon = 4)
icases_forecast
#> # A tibble: 96 x 6
#>    .model    yweek quantile    value type     icases
#>    <chr>    <week>    <dbl>    <dbl> <chr>    <dist>
#>  1 arima  2021 W02    0.01  1712015. quantile      ?
#>  2 arima  2021 W02    0.025 1743783. quantile      ?
#>  3 arima  2021 W02    0.05  1752029. quantile      ?
#>  4 arima  2021 W02    0.1   1785415. quantile      ?
#>  5 arima  2021 W02    0.15  1808497. quantile      ?
#>  6 arima  2021 W02    0.2   1828557. quantile      ?
#>  7 arima  2021 W02    0.25  1834539. quantile      ?
#>  8 arima  2021 W02    0.3   1856357. quantile      ?
#>  9 arima  2021 W02    0.35  1857048. quantile      ?
#> 10 arima  2021 W02    0.4   1862243. quantile      ?
#> # … with 86 more rows

## need to get future cases to pass to ideaths forecast
future_cases <- ts_futurecases(usa, icases_forecast, horizon = 4)
# Forecast incident deaths based on best guess for cases
ideaths_forecast <- ts_forecast(fit.ideaths,  outcome = "ideaths", new_data = future_cases)
ideaths_forecast
#> # A tibble: 96 x 7
#>    .model             yweek quantile  value type     ideaths icases
#>    <chr>             <week>    <dbl>  <dbl> <chr>     <dist>  <dbl>
#>  1 linear_caselag3 2021 W02    0.01  18097. quantile       ?     NA
#>  2 linear_caselag3 2021 W02    0.025 18097. quantile       ?     NA
#>  3 linear_caselag3 2021 W02    0.05  18098. quantile       ?     NA
#>  4 linear_caselag3 2021 W02    0.1   18138. quantile       ?     NA
#>  5 linear_caselag3 2021 W02    0.15  20032. quantile       ?     NA
#>  6 linear_caselag3 2021 W02    0.2   20133. quantile       ?     NA
#>  7 linear_caselag3 2021 W02    0.25  20289. quantile       ?     NA
#>  8 linear_caselag3 2021 W02    0.3   20395. quantile       ?     NA
#>  9 linear_caselag3 2021 W02    0.35  20525. quantile       ?     NA
#> 10 linear_caselag3 2021 W02    0.4   20561. quantile       ?     NA
#> # … with 86 more rows

We can use the forecasts of incidence to infer cumulative targets. The ts_forecast() function is flexible enough to switch methods internally, requiring a “inc_forecast” parameter if either “cdeaths” or “ccases” is passed as the “outcome” for the forecast:

## generate cumulative forecasts
cdeaths_forecast <- ts_forecast(outcome = "cdeaths", .data = usa, inc_forecast = ideaths_forecast)
cdeaths_forecast
#> # A tibble: 96 x 8
#>    .model    yweek quantile  value type            ideaths  icases
#>    <chr>    <week>    <dbl>  <dbl> <chr>            <dist>   <dbl>
#>  1 linea… 2021 W02   NA     3.90e5 point N(17569, 1.5e+07)  1.87e6
#>  2 linea… 2021 W02    0.01  3.91e5 quan…                 ? NA     
#>  3 linea… 2021 W02    0.025 3.91e5 quan…                 ? NA     
#>  4 linea… 2021 W02    0.05  3.91e5 quan…                 ? NA     
#>  5 linea… 2021 W02    0.1   3.91e5 quan…                 ? NA     
#>  6 linea… 2021 W02    0.15  3.93e5 quan…                 ? NA     
#>  7 linea… 2021 W02    0.2   3.93e5 quan…                 ? NA     
#>  8 linea… 2021 W02    0.25  3.93e5 quan…                 ? NA     
#>  9 linea… 2021 W02    0.3   3.93e5 quan…                 ? NA     
#> 10 linea… 2021 W02    0.35  3.93e5 quan…                 ? NA     
#> # … with 86 more rows, and 1 more variable: `ifelse(value < recorded_so_far,
#> #   recorded_so_far, value)` <dbl>

Prior to submitting these forecasts to the COVID-19 Forecast Hub we need to prepare them in the canonical submission format. Data prep in format_for_submission includes naming targets appropriately and ensuring that target dates adhere to epidemiological week format:

## create submission object
submission <-
  list(format_for_submission(icases_forecast, target_name = "inc case"),
       format_for_submission(ideaths_forecast, target_name = "inc death"),
       format_for_submission(cdeaths_forecast, target_name = "cum death")) %>%
  reduce(bind_rows) %>%
  arrange(target)

submission
#> # A tibble: 224 x 7
#>    forecast_date target          target_end_date location type   quantile  value
#>    <date>        <glue>          <date>          <chr>    <chr>     <dbl>  <int>
#>  1 2021-01-11    1 wk ahead cum… 2021-01-16      US       point    NA     390077
#>  2 2021-01-11    1 wk ahead cum… 2021-01-16      US       quant…    0.01  390605
#>  3 2021-01-11    1 wk ahead cum… 2021-01-16      US       quant…    0.025 390605
#>  4 2021-01-11    1 wk ahead cum… 2021-01-16      US       quant…    0.05  390606
#>  5 2021-01-11    1 wk ahead cum… 2021-01-16      US       quant…    0.1   390646
#>  6 2021-01-11    1 wk ahead cum… 2021-01-16      US       quant…    0.15  392540
#>  7 2021-01-11    1 wk ahead cum… 2021-01-16      US       quant…    0.2   392641
#>  8 2021-01-11    1 wk ahead cum… 2021-01-16      US       quant…    0.25  392797
#>  9 2021-01-11    1 wk ahead cum… 2021-01-16      US       quant…    0.3   392903
#> 10 2021-01-11    1 wk ahead cum… 2021-01-16      US       quant…    0.35  393033
#> # … with 214 more rows
…
