…
With the model fit objects created, we can generate forecasts (including
point and quantile estimates) for the outcomes of interest at an
arbitrary horizon. Note that given the model we have chosen for the
incident deaths outcome, we do need to make sure to generate the
incident case forecast *first* so that we can retrieve point estimates
for future cases, which will be passed into the incident deaths
forecast:

``` r
## generate incident case forecast
icases_forecast <- ts_forecast(fit.icases, outcome = "icases", horizon = 4)
icases_forecast
#> # A tibble: 96 x 6
#>    .model    yweek quantile    value type     icases
#>    <chr>    <week>    <dbl>    <dbl> <chr>    <dist>
#>  1 arima  2021 W02    0.01  1704326. quantile      ?
#>  2 arima  2021 W02    0.025 1711439. quantile      ?
#>  3 arima  2021 W02    0.05  1719276. quantile      ?
#>  4 arima  2021 W02    0.1   1789882. quantile      ?
#>  5 arima  2021 W02    0.15  1797630. quantile      ?
#>  6 arima  2021 W02    0.2   1831974. quantile      ?
#>  7 arima  2021 W02    0.25  1850293. quantile      ?
#>  8 arima  2021 W02    0.3   1855465. quantile      ?
#>  9 arima  2021 W02    0.35  1863925. quantile      ?
#> 10 arima  2021 W02    0.4   1867684. quantile      ?
#> # … with 86 more rows

## need to get future cases to pass to ideaths forecast
future_cases <- ts_futurecases(usa, icases_forecast, horizon = 4)
# Forecast incident deaths based on best guess for cases
ideaths_forecast <- ts_forecast(fit.ideaths,  outcome = "ideaths", new_data = future_cases)
ideaths_forecast
#> # A tibble: 96 x 7
#>    .model             yweek quantile  value type     ideaths icases
#>    <chr>             <week>    <dbl>  <dbl> <chr>     <dist>  <dbl>
#>  1 linear_caselag3 2021 W02    0.01  18197. quantile       ?     NA
#>  2 linear_caselag3 2021 W02    0.025 18197. quantile       ?     NA
#>  3 linear_caselag3 2021 W02    0.05  18198. quantile       ?     NA
#>  4 linear_caselag3 2021 W02    0.1   18238. quantile       ?     NA
#>  5 linear_caselag3 2021 W02    0.15  19924. quantile       ?     NA
#>  6 linear_caselag3 2021 W02    0.2   20134. quantile       ?     NA
#>  7 linear_caselag3 2021 W02    0.25  20181. quantile       ?     NA
#>  8 linear_caselag3 2021 W02    0.3   20406. quantile       ?     NA
#>  9 linear_caselag3 2021 W02    0.35  20629. quantile       ?     NA
#> 10 linear_caselag3 2021 W02    0.4   20634. quantile       ?     NA
#> # … with 86 more rows
```

We can use the forecasts of incidence to infer cumulative targets. The
`ts_forecast()` function is flexible enough to switch methods
internally, requiring a “inc\_forecast” parameter if either “cdeaths” or
“ccases” is passed as the “outcome” for the forecast:

``` r
## generate cumulative forecasts
cdeaths_forecast <- ts_forecast(outcome = "cdeaths", .data = usa, inc_forecast = ideaths_forecast)
cdeaths_forecast
#> # A tibble: 96 x 8
#>    .model    yweek quantile  value type            ideaths  icases
#>    <chr>    <week>    <dbl>  <dbl> <chr>            <dist>   <dbl>
#>  1 linea… 2021 W02   NA     3.90e5 point N(17632, 1.4e+07)  1.87e6
#>  2 linea… 2021 W02    0.01  3.91e5 quan…                 ? NA     
#>  3 linea… 2021 W02    0.025 3.91e5 quan…                 ? NA     
#>  4 linea… 2021 W02    0.05  3.91e5 quan…                 ? NA     
#>  5 linea… 2021 W02    0.1   3.91e5 quan…                 ? NA     
#>  6 linea… 2021 W02    0.15  3.93e5 quan…                 ? NA     
#>  7 linea… 2021 W02    0.2   3.93e5 quan…                 ? NA     
#>  8 linea… 2021 W02    0.25  3.93e5 quan…                 ? NA     
#>  9 linea… 2021 W02    0.3   3.93e5 quan…                 ? NA     
#> 10 linea… 2021 W02    0.35  3.93e5 quan…                 ? NA     
#> # … with 86 more rows, and 1 more variable: `ifelse(value < recorded_so_far,
#> #   recorded_so_far, value)` <dbl>
```
…
``` r
## create submission object
submission <-
  list(format_for_submission(icases_forecast, target_name = "inc case"),
       format_for_submission(ideaths_forecast, target_name = "inc death"),
       format_for_submission(cdeaths_forecast, target_name = "cum death")) %>%
  reduce(bind_rows) %>%
  arrange(target)

submission
#> # A tibble: 216 x 7
#>    forecast_date target          target_end_date location type   quantile  value
#>    <date>        <glue>          <date>          <chr>    <chr>     <dbl>  <int>
#>  1 2021-01-11    1 wk ahead cum… 2021-01-16      US       point    NA     390283
#>  2 2021-01-11    1 wk ahead cum… 2021-01-16      US       quant…    0.01  390848
#>  3 2021-01-11    1 wk ahead cum… 2021-01-16      US       quant…    0.025 390848
#>  4 2021-01-11    1 wk ahead cum… 2021-01-16      US       quant…    0.05  390849
#>  5 2021-01-11    1 wk ahead cum… 2021-01-16      US       quant…    0.1   390889
#>  6 2021-01-11    1 wk ahead cum… 2021-01-16      US       quant…    0.15  392575
#>  7 2021-01-11    1 wk ahead cum… 2021-01-16      US       quant…    0.2   392785
#>  8 2021-01-11    1 wk ahead cum… 2021-01-16      US       quant…    0.25  392832
#>  9 2021-01-11    1 wk ahead cum… 2021-01-16      US       quant…    0.3   393057
#> 10 2021-01-11    1 wk ahead cum… 2021-01-16      US       quant…    0.35  393280
#> # … with 206 more rows
```
…
